86400	0
172800	0
259200	0
345600	0
432000	0
518400	1
604800	1
691200	1
777600	1
864000	1
950400	0
1036800	0
1123200	0
1209600	0
1296000	0
1382400	0
1468800	0
1555200	0
1641600	0
1728000	0
1814400	1
1900800	1
1987200	1
2073600	1
2160000	1
2246400	1
2332800	1
2419200	1
2505600	1
2592000	1
2678400	0
2764800	0
2851200	0
2937600	0
3024000	0
3110400	0
3196800	0
3283200	0
3369600	0
3456000	0
3542400	0
3628800	0
3715200	0
3801600	0
3888000	0
3974400	0
4060800	0
4147200	0
4233600	0
4320000	0
4406400	1
4492800	1
4579200	1
4665600	1
4752000	1
4838400	0
4924800	0
5011200	0
5097600	0
5184000	0
5270400	0
5356800	0
5443200	0
5529600	0
5616000	0
5702400	0
5788800	0
5875200	0
5961600	0
6048000	0
6134400	0
6220800	0
6307200	0
6393600	0
6480000	0
6566400	0
6652800	0
6739200	0
6825600	0
6912000	1
6998400	1
7084800	1
7171200	1
7257600	1
7344000	1
7430400	0
7516800	0
7603200	0
7689600	0
7776000	0
7862400	0
7948800	0
8035200	0
8121600	0
8208000	0
8294400	0
8380800	0
8467200	0
8553600	0
8640000	1
8726400	1
8812800	1
8899200	1
8985600	1
9072000	1
9158400	0
9244800	0
9331200	0
9417600	0
9504000	0
9590400	0
9676800	0
9763200	0
9849600	0
9936000	0
10022400	0
10108800	0
10195200	0
10281600	0
10368000	0
10454400	1
10540800	1
10627200	1
10713600	1
10800000	1
10886400	0
10972800	0
11059200	0
11145600	0
11232000	0
11318400	0
11404800	0
11491200	0
11577600	0
11664000	0
11750400	0
11836800	0
11923200	0
12009600	0
12096000	1
12182400	1
12268800	1
12355200	1
12441600	1
12528000	1
12614400	1
12700800	1
12787200	1
12873600	1
12960000	1
13046400	1
13132800	1
13219200	0
13305600	0
13392000	0
13478400	0
13564800	0
13651200	0
13737600	0
13824000	0
13910400	0
13996800	0
14083200	1
14169600	1
14256000	1
14342400	1
14428800	1
14515200	1
14601600	1
14688000	1
14774400	1
14860800	1
14947200	1
15033600	1
15120000	1
15206400	1
15292800	1
15379200	1
15465600	1
15552000	1
15638400	1
15724800	1
15811200	1
15897600	1
15984000	1
16070400	1
16156800	1
16243200	1
16329600	1
16416000	1
16502400	1
16588800	1
16675200	1
16761600	1
16848000	1
16934400	1
17020800	1
17107200	1
17193600	0
17280000	0
17366400	0
17452800	0
17539200	0
17625600	0
17712000	0
17798400	0
17884800	0
17971200	0
18057600	0
18144000	0
18230400	0
18316800	0
18403200	0
18489600	0
18576000	1
18662400	1
18748800	1
18835200	1
18921600	1
19008000	1
19094400	1
19180800	1
19267200	1
19353600	1
19440000	1
19526400	1
19612800	1
19699200	0
19785600	0
19872000	0
19958400	0
20044800	0
20131200	0
20217600	0
20304000	0
20390400	0
20476800	0
20563200	0
20649600	0
20736000	0
20822400	0
20908800	0
20995200	0
21081600	1
21168000	1
21254400	1
21340800	1
21427200	1
21513600	1
21600000	1
21686400	1
21772800	1
21859200	1
21945600	1
22032000	1
22118400	1
22204800	1
22291200	1
22377600	1
22464000	1
22550400	1
22636800	1
22723200	0
22809600	0
22896000	0
22982400	0
23068800	0
23155200	0
23241600	0
23328000	0
23414400	0
23500800	0
23587200	0
23673600	0
23760000	0
23846400	0
23932800	0
24019200	0
24105600	1
24192000	1
24278400	1
24364800	1
24451200	1
24537600	1
24624000	1
24710400	1
24796800	1
24883200	1
24969600	1
25056000	1
25142400	1
25228800	1
25315200	1
25401600	1
25488000	1
25574400	1
25660800	1
25747200	1
25833600	1
25920000	1
26006400	1
26092800	1
26179200	1
26265600	1
26352000	1
26438400	1
26524800	1
26611200	1
26697600	1
26784000	1
26870400	1
26956800	0
27043200	0
27129600	0
27216000	0
27302400	0
27388800	0
27475200	0
27561600	0
27648000	0
27734400	0
27820800	0
27907200	0
27993600	1
28080000	1
28166400	1
28252800	1
28339200	1
28425600	1
28512000	1
28598400	1
28684800	1
28771200	1
28857600	1
28944000	1
29030400	1
29116800	1
29203200	1
29289600	1
29376000	1
29462400	1
29548800	1
29635200	1
29721600	1
29808000	0
29894400	0
29980800	0
30067200	0
30153600	0
30240000	0
30326400	0
30412800	0
30499200	0
30585600	0
30672000	0
30758400	0
30844800	0
30931200	0
31017600	0
31104000	0
31190400	0
31276800	0
31363200	0
31449600	0
31536000	0
