161
194
258
260
291
293
346
348
379
381
412
414
478
480
511
513
566
568
599
601
632
634
698
700
731
733
786
788
819
821
852
854
918
920
951
953
1006
1008
1041
1074
1138
1140
1171
1173
1226
1228
1259
1261
1292
1358
1360
1391
1393
1446
1448
1479
1512
1578
1580
1611