0.000000000000000000e+00 0.000000000000000000e+00 0.000000000000000000e+00 0.000000000000000000e+00 0.000000000000000000e+00 0.000000000000000000e+00 0.000000000000000000e+00 0.000000000000000000e+00
-3.165142154110409061e-08 -3.100686405721087899e-08 -1.615094042098755839e-08 -9.998734783874526458e-09 -2.759902193722832544e-08 -4.122873560839078105e-08 -6.909863349214745650e-09 -5.327878303704955908e-09
-3.146834142884810973e-08 -3.095636454356543378e-08 -1.611331613709333294e-08 -9.992303300837335222e-09 -2.752718635806993892e-08 -4.116623750641035934e-08 -6.882949807337274050e-09 -5.284341278686127292e-09
-3.120845929948444125e-08 -3.085151376244015478e-08 -1.603916813986920013e-08 -9.979561797962897315e-09 -2.738808514256870531e-08 -4.103954699434424198e-08 -6.829113570574551160e-09 -5.199368113872384479e-09
-3.084956422842953427e-08 -3.039095073033668332e-08 -1.575677461066761337e-08 -9.930144905026017343e-09 -2.688940582183214228e-08 -4.050785424828453513e-08 -6.613845980551257714e-09 -4.885987032301484681e-09
-2.972826545166316176e-08 -2.855947225206087450e-08 -1.483192451972764466e-08 -9.754043778588706047e-09 -2.563478607113989729e-08 -3.789863080606171405e-08 -5.770211751560231599e-09 -3.980422303982753572e-09
-2.967532136027368419e-08 -2.819078666890484209e-08 -1.462830637460576407e-08 -9.710718111572502813e-09 -2.544296561047484341e-08 -3.704456405324755345e-08 -5.548392008836607864e-09 -3.807470898408324344e-09
-2.962237726888420662e-08 -2.787946920893146120e-08 -1.444200083156457836e-08 -9.668799875804083155e-09 -2.529596347622058591e-08 -3.613595424987377845e-08 -5.330933022107748562e-09 -3.658002263604716335e-09
-2.956943317749473236e-08 -2.761857717971163018e-08 -1.427165870419153997e-08 -9.628041290353072464e-09 -2.518621209357969651e-08 -3.518334586558936679e-08 -5.118427529545022573e-09 -3.528809254096808549e-09
-2.951648908610526141e-08 -2.740531257810668642e-08 -1.411603045426467631e-08 -9.588203029652753810e-09 -2.510734327534505765e-08 -3.420023565786552978e-08 -4.911400134039281519e-09 -3.417092999821832285e-09
-2.946354499471579377e-08 -2.723030305260952104e-08 -1.397396014140083347e-08 -9.549054239790873946e-09 -2.505404312935412139e-08 -3.320069714079381650e-08 -4.710306489636472236e-09 -3.320419206760234627e-09
-2.941060090332631289e-08 -2.708497697411317423e-08 -1.384437943857748189e-08 -9.510372608631533853e-09 -2.502190535167246268e-08 -3.219908478464530096e-08 -4.515533542771108891e-09 -3.236676721756637872e-09
-2.935765681193684194e-08 -2.696249769839889431e-08 -1.372630190505902198e-08 -9.471944483751619320e-09 -2.500729292517619411e-08 -3.121356727705486362e-08 -4.327400732761809150e-09 -3.164039071094366525e-09
-2.930471272054736768e-08 -2.685756662939635007e-08 -1.361881740521751194e-08 -9.433565030632841262e-09 -2.500721332014696686e-08 -3.026024053723777847e-08 -4.146162035615028791e-09 -3.100929313014573705e-09
-2.925176862915789673e-08 -2.676591013031869968e-08 -1.352108672574186260e-08 -9.395038417826721336e-09 -2.501920931148847937e-08 -2.935221221258838383e-08 -3.972008739040361704e-09 -3.045988315291374562e-09
-2.919882453776841917e-08 -2.668460585990118449e-08 -1.343233644708882682e-08 -9.356178014151124709e-09 -2.504126525716993377e-08 -2.849927134677967894e-08 -3.805072819437361386e-09 -2.998046400022960148e-09
-2.914588044637894821e-08 -2.661138962879273534e-08 -1.335185406924362904e-08 -9.316806577678568764e-09 -2.507172794809584304e-08 -2.770788818085687320e-08 -3.645430797333243056e-09 -2.956098197304746955e-09
-2.909293635498947396e-08 -2.654456539527783191e-08 -1.327898341194549124e-08 -9.276756405476614994e-09 -2.510924046399833591e-08 -2.698147463675407408e-08 -3.493107949647953911e-09 -2.919280485892470665e-09
-2.903999226359999970e-08 -2.648286041583265859e-08 -1.321312027331880881e-08 -9.235869395907724604e-09 -2.515268745136851153e-08 -2.632081766326122741e-08 -3.348082765633477345e-09 -2.886852766688788923e-09
-2.898704817221052544e-08 -2.642532989153822456e-08 -1.315370838285683025e-08 -9.193996939048091626e-09 -2.520114984762214105e-08 -2.572460012403427233e-08 -3.210291539538944333e-09 -2.858180304931576615e-09
-2.893410408082105118e-08 -2.637096994908719416e-08 -1.310023557927377264e-08 -9.150999456411785640e-09 -2.525386794544123140e-08 -2.518993806156755525e-08 -3.079633006113483632e-09 -2.832719381038948201e-09
-3.030672913960420931e-08 -2.758740029625763409e-08 -1.368583366677351718e-08 -9.550222168586137898e-09 -2.653558073984242859e-08 -2.584481072129585258e-08 -3.090543581021823846e-09 -2.947540102500881702e-09
-3.025117173685894393e-08 -2.750898461951906702e-08 -1.363097080223288511e-08 -9.496187522840752647e-09 -2.657754049836342871e-08 -2.532362751376600033e-08 -2.957760315492513456e-09 -2.925244364692774396e-09
-3.019561433411368517e-08 -2.743760464194908530e-08 -1.358176624391679257e-08 -9.439634869072434800e-09 -2.662517185582551662e-08 -2.486382910560323903e-08 -2.833037477677828480e-09 -2.905243528639736635e-09
-3.014005693136841317e-08 -2.737253008693639657e-08 -1.353775531553668524e-08 -9.380037943471771464e-09 -2.667755807884869940e-08 -2.445921239273376663e-08 -2.716094968602791327e-09 -2.887189266620492488e-09
-3.008449952862315441e-08 -2.731266302487836970e-08 -1.349851102859083971e-08 -9.317518093717749893e-09 -2.673393211457913396e-08 -2.410362464746877002e-08 -2.606633442761192727e-09 -2.870786110209077768e-09
-3.002894212587788903e-08 -2.725696116990056646e-08 -1.346364082210686043e-08 -9.252206770435030132e-09 -2.679364774963843038e-08 -2.379118507917028741e-08 -2.504339185322517356e-09 -2.855783496633534259e-09
-2.997338472313263026e-08 -2.720465612096879590e-08 -1.343278361006255694e-08 -9.184244948303067971e-09 -2.685615596210858908e-08 -2.351642332631343043e-08 -2.408888536566584675e-09 -2.841968992249969842e-09
-2.991782732038737150e-08 -2.715524803195646557e-08 -1.340560708001060137e-08 -9.113782463502703474e-09 -2.692098552285941780e-08 -2.327435423113884117e-08 -2.319951857381767445e-09 -2.829162525215999768e-09
-2.986226991764209950e-08 -2.710816268091182553e-08 -1.338180520691646682e-08 -9.040977272011921189e-09 -2.698772713379518578e-08 -2.306050635835770500e-08 -2.237197039756332998e-09 -2.817211480539382982e-09
-2.980671251489684074e-08 -2.706301156587263485e-08 -1.336109596682527186e-08 -8.965994634928178432e-09 -2.705602035890402018e-08 -2.287091877783299297e-08 -2.160292580827063678e-09 -2.805986531598033323e-09
-2.975115511215157866e-08 -2.701954364117790439e-08 -1.334321925711581494e-08 -8.889006239371718995e-09 -2.712554289885872473e-08 -2.270211713838806224e-08 -2.088910234093452947e-09 -2.795378099359531973e-09
-2.969559770940631328e-08 -2.697754373144506277e-08 -1.332793499535673190e-08 -8.810189263678702724e-09 -2.719600177087023391e-08 -2.255107760735963054e-08 -2.022727267059080661e-09 -2.785293346492162187e-09
-2.964004030666105121e-08 -2.693685445080799898e-08 -1.331502137597863596e-08 -8.729725398001324416e-09 -2.726712601837207419e-08 -2.241518481105300429e-08 -1.961428349910148136e-09 -2.775653626380062698e-09
-2.958448290391578583e-08 -2.689735994166160319e-08 -1.330427327996560349e-08 -8.647799828330179727e-09 -2.733866069244723240e-08 -2.229218790824950604e-08 -1.904707106198970959e-09 -2.766392319023075701e-09
-2.952892550117052706e-08 -2.685893299005628747e-08 -1.329550082232087997e-08 -8.564600198179184432e-09 -2.741036186542443586e-08 -2.218015748049262575e-08 -1.852267357672219128e-09 -2.757452995790981978e-09
-2.947336809842525837e-08 -2.682153199174014822e-08 -1.328852802572945709e-08 -8.480315557114852758e-09 -2.748199248611577022e-08 -2.207744487179950144e-08 -1.803824090920407489e-09 -2.748787863154083472e-09
-2.941781069567999961e-08 -2.678506844146470784e-08 -1.328319160976790661e-08 -8.395135308782229684e-09 -2.755331893966722066e-08 -2.198264487479845041e-08 -1.759104177994617096e-09 -2.740356443557404063e-09
-2.936225329293473754e-08 -2.674947583635033916e-08 -1.327933988531699006e-08 -8.309248170186246684e-09 -2.762410855101506022e-08 -2.189456215601107890e-08 -1.717846879293349711e-09 -2.732124457274836811e-09
-2.930669589018947216e-08 -2.671470466093655588e-08 -1.327683174693567684e-08 -8.222841152791749523e-09 -2.769412803447548252e-08 -2.181218148201402331e-08 -1.679804156399454074e-09 -2.724062874876511743e-09
-2.925113848744421008e-08 -2.668072660334779981e-08 -1.327553575205034679e-08 -8.136098576916606036e-09 -2.776314100701220573e-08 -2.173464161132775605e-08 -1.644740820252517543e-09 -2.716147114370831996e-09
-2.977274978387368479e-08 -2.743018845523543071e-08 -1.370472267743536679e-08 -8.494011497776335211e-09 -2.858058525707026733e-08 -2.323678293415400973e-08 -2.828450239218394064e-09 -4.607794525060150158e-09
-2.971609406444210423e-08 -2.759973432839300297e-08 -1.386462376675579442e-08 -8.683063735757814684e-09 -2.882635213967071289e-08 -2.409352646654138149e-08 -3.844674628216050869e-09 -6.116949337344550896e-09
-2.965641490159999816e-08 -2.772879685266089637e-08 -1.402198977492846151e-08 -8.867348555669853615e-09 -2.905325320232222037e-08 -2.478736767015401188e-08 -4.746945663428573614e-09 -7.367783985597797882e-09
-2.943649323799999713e-08 -2.789189309135995611e-08 -1.436866404249117280e-08 -9.180055493770656302e-09 -2.926422107621376887e-08 -2.535520871831729238e-08 -5.551983437744609871e-09 -8.412549934022710600e-09
-2.921657157439999611e-08 -2.802813554459973212e-08 -1.470730174732972203e-08 -9.486918985393247535e-09 -2.946160797960834370e-08 -2.582378741335919045e-08 -6.273347631876742573e-09 -9.290879454083566420e-09
-2.899664991079999839e-08 -2.814453430017047896e-08 -1.503817323816033413e-08 -9.788023199011766146e-09 -2.964732187040987585e-08 -2.621296183949840259e-08 -6.922153114256192211e-09 -1.003334111793547014e-08
-2.877672824719999074e-08 -2.824626647635094023e-08 -1.536155106932126705e-08 -1.008343786151396516e-08 -2.982292356617096380e-08 -2.653779326272716658e-08 -7.507599769727747166e-09 -1.066386237377736993e-08
-2.855680658359999964e-08 -2.833736131707884965e-08 -1.567770830686739687e-08 -1.037321956550018775e-08 -2.998969776626991603e-08 -2.680991228293214717e-08 -8.037370653978696693e-09 -1.120141739544906690e-08
-2.833688491999999862e-08 -2.842073769569803310e-08 -1.598691679679261985e-08 -1.065741289379264809e-08 -3.014870629538530315e-08 -2.703844117331949316e-08 -8.517935142457870323e-09 -1.166122663547328200e-08
-2.811696325640000090e-08 -2.849853563528994045e-08 -1.628944547856870908e-08 -1.093605140236856316e-08 -3.030082878772359366e-08 -2.723063246176995318e-08 -8.954782512915541772e-09 -1.205562476058286361e-08
-2.789704159279999656e-08 -2.857223122010941608e-08 -1.658555880445404871e-08 -1.120915849786310020e-08 -3.044679431347052398e-08 -2.739232093351217970e-08 -9.352603862416874072e-09 -1.239469891126084258e-08
-2.767711992919999885e-08 -2.864296303082055630e-08 -1.687551529286643514e-08 -1.147674823524648679e-08 -3.058720633679042520e-08 -2.752824991558230793e-08 -9.715435191630557843e-09 -1.268676505581286461e-08
-2.745719826560000113e-08 -2.871151323677097702e-08 -1.715956622711407735e-08 -1.173882605837852573e-08 -3.072256267629845753e-08 -2.764231098830003995e-08 -1.004677094454242561e-08 -1.293872837558148475e-08
-2.723727660200000341e-08 -2.877846085591987704e-08 -1.743795450163863232e-08 -1.199538949996928608e-08 -3.085327165532111702e-08 -2.773772290537269952e-08 -1.034965484576612569e-08 -1.315635932107748104e-08
-2.701735493839999577e-08 -2.884425914619567969e-08 -1.771091361098376193e-08 -1.224642885468283604e-08 -3.097966531255096131e-08 -2.781716706990686048e-08 -1.062675311943218205e-08 -1.334450753859783546e-08
-2.679743327479999805e-08 -2.890921628847111938e-08 -1.797866677397881175e-08 -1.249192783635991044e-08 -3.110201031173291955e-08 -2.788289147291649119e-08 -1.088041391658866554e-08 -1.350726941372402780e-08
-2.657751161119999702e-08 -2.897356830356289018e-08 -1.824142618221167405e-08 -1.273186422808457596e-08 -3.122051704301423922e-08 -2.793679139370717746e-08 -1.111271585126412014e-08 -1.364812060947986329e-08
-2.635758994759999930e-08 -2.903744693920907479e-08 -1.849939236419245815e-08 -1.296621053208804760e-08 -3.133534726241904953e-08 -2.798047275349270138e-08 -1.132550787648210402e-08 -1.377002187281678928e-08
-2.613766828399999828e-08 -2.910094791696822582e-08 -1.875275365300493305e-08 -1.319493462478550987e-08 -3.144662057665246832e-08 -2.801530235439657016e-08 -1.152044222132549235e-08 -1.387550422780367162e-08
-2.591774662040000056e-08 -2.916423171620006598e-08 -1.900168575008504601e-08 -1.341800042137108454e-08 -3.155442000653509814e-08 -2.804244809293136395e-08 -1.169900173297679253e-08 -1.396673811508085037e-08
-2.528152586559999727e-08 -2.883463117657270453e-08 -1.899855999654405160e-08 -1.352022887935529060e-08 -3.122545330349884554e-08 -2.794133093501349964e-08 -1.201289562935802918e-08 -1.430426582395241151e-08
-2.506516688440000070e-08 -2.896007702094237410e-08 -1.929688930607746814e-08 -1.383217742007928462e-08 -3.139886519285378700e-08 -2.824131364495839980e-08 -1.247149904787616984e-08 -1.479223761352768429e-08
-2.484880790320000081e-08 -2.907144890001409702e-08 -1.958908113650768776e-08 -1.413667631507615134e-08 -3.156433349157035065e-08 -2.849711589018245724e-08 -1.289006854778420429e-08 -1.521585492388432780e-08
-2.463244892200000093e-08 -2.917176593693916101e-08 -1.987538109982330596e-08 -1.443392099366114626e-08 -3.172259458084835218e-08 -2.871594102590440321e-08 -1.327274973234252580e-08 -1.558459074696822225e-08
-2.441608994080000105e-08 -2.926372835436301555e-08 -2.015602423327115281e-08 -1.472408112874181585e-08 -3.187426183363209050e-08 -2.890358087126229864e-08 -1.362312217493360993e-08 -1.590629057506832332e-08
-2.419973095959999456e-08 -2.934954853132617495e-08 -2.043123474150887256e-08 -1.500730306845842764e-08 -3.201984638883144263e-08 -2.906474345813361830e-08 -1.394429535027526222e-08 -1.618750049424092077e-08
-2.398337197839999799e-08 -2.943096303517189046e-08 -2.070122571252901889e-08 -1.528371201782856843e-08 -3.215977370112738806e-08 -2.920329322942632263e-08 -1.423898588781968090e-08 -1.643371916067640934e-08
-2.376701299719999811e-08 -2.950924705049193745e-08 -2.096619883959342464e-08 -1.555341401256445991e-08 -3.229439693400397917e-08 -2.932242987117735396e-08 -1.450958021732463858e-08 -1.664959343836156263e-08
-2.355065401599999823e-08 -2.958525010887613952e-08 -2.122634415603830991e-08 -1.581649772036701870e-08 -3.242400791663044031e-08 -2.942482336083961253e-08 -1.475818569432592001e-08 -1.683907186532842770e-08
-2.333429503479999504e-08 -2.965961756425112940e-08 -2.148183979698214596e-08 -1.607303609903739436e-08 -3.254884621451665887e-08 -2.951271728268017654e-08 -1.498667257126514047e-08 -1.700552618656913264e-08
-2.311793605359999846e-08 -2.973274620168214865e-08 -2.173285179216431247e-08 -1.632308793644026055e-08 -3.266910670296185469e-08 -2.958800880835355090e-08 -1.519670863826329406e-08 -1.715184845061951443e-08
-2.290157707239999858e-08 -2.980502845638456495e-08 -2.197953389214947458e-08 -1.656669929347017717e-08 -3.278494596357169515e-08 -2.965231129289611473e-08 -1.538978795824310154e-08 -1.728052923493354109e-08
-2.268521809120000201e-08 -2.987669617456906253e-08 -2.222202742896603950e-08 -1.680390486726629984e-08 -3.289648773728892202e-08 -2.970700375825547721e-08 -1.556725481241836810e-08 -1.739372115255372797e-08
-2.246885911000000213e-08 -2.994794244864674931e-08 -2.246046121007908862e-08 -1.703472928938422350e-08 -3.300382762867086774e-08 -2.975327037738313039e-08 -1.573032373930887823e-08 -1.749329079039701866e-08
-2.225250012880000225e-08 -3.001888586453544587e-08 -2.269495144868598155e-08 -1.725918837117969378e-08 -3.310703717979371657e-08 -2.979213225201979936e-08 -1.588009637074423131e-08 -1.758086147341531931e-08
-2.203614114759999576e-08 -3.008963448853747145e-08 -2.292560172936637755e-08 -1.747729030634872352e-08 -3.320616743661905753e-08 -2.982447319471219322e-08 -1.601757562953849587e-08 -1.765784870569096765e-08
-2.181978216640000249e-08 -3.016027889874532382e-08 -2.315250300932831362e-08 -1.768903683886744575e-08 -3.330125209393573793e-08 -2.985106080218486188e-08 -1.614367774152168114e-08 -1.772548971196530702e-08
-2.160342318519999269e-08 -3.023084073910441589e-08 -2.337573365651721937e-08 -1.789442440282429992e-08 -3.339231028126217221e-08 -2.987256380129112518e-08 -1.625924243341263873e-08 -1.778486820581886930e-08
-2.138706420399999611e-08 -3.030141653955219345e-08 -2.359535952330827972e-08 -1.809344523899057258e-08 -3.347934905814737614e-08 -2.988956641909810387e-08 -1.636504161600192276e-08 -1.783693526008772520e-08
-2.117070522279999954e-08 -3.037202154625167904e-08 -2.381143405873341343e-08 -1.828608849156803104e-08 -3.356236564458417188e-08 -2.990258035950481566e-08 -1.646178680076319022e-08 -1.788252698230764248e-08
-2.063264432895999787e-08 -2.974385263721570033e-08 -2.340709699552535679e-08 -1.771480684831354643e-08 -3.276410426398562808e-08 -2.835909881581101255e-08 -1.496362895816461761e-08 -1.596908560926269215e-08
-2.041960700223999914e-08 -2.963694652961838680e-08 -2.336626085616587727e-08 -1.739804507120896714e-08 -3.247423201308874153e-08 -2.735002639195804937e-08 -1.376062545576681420e-08 -1.444539293819049129e-08
-2.020656967551999711e-08 -2.957456935850359140e-08 -2.332202111399131050e-08 -1.705730023910208971e-08 -3.217940819981646607e-08 -2.642326655553253717e-08 -1.261113768622437276e-08 -1.304483989768787031e-08
-1.999353234879999177e-08 -2.954358241205163997e-08 -2.327308836541829611e-08 -1.669492970825316217e-08 -3.188140823148494967e-08 -2.558131729585880576e-08 -1.152354502973321892e-08 -1.177022507514877410e-08
-1.978049502207999966e-08 -2.953427348709967941e-08 -2.321839083327407668e-08 -1.631356428165317516e-08 -3.158191900420274107e-08 -2.482333709497981101e-08 -1.050387504864954327e-08 -1.062044030892927231e-08
-1.956745769535999431e-08 -2.954092987931319767e-08 -2.315707433366299088e-08 -1.591605971634530650e-08 -3.128242131072222489e-08 -2.414596907041509629e-08 -9.555924973630056717e-09 -9.591328544201259757e-09
-1.935442036863999559e-08 -2.955862214204024744e-08 -2.308849785776659603e-08 -1.550544097265992432e-08 -3.098411969796832677e-08 -2.354412767567555461e-08 -8.681472934587445894e-09 -8.676512836727544551e-09
-1.914138304191999686e-08 -2.958500841574555427e-08 -2.301222480603692629e-08 -1.508484131594815118e-08 -3.068791380303223788e-08 -2.301168273066026761e-08 -7.880547337698093859e-09 -7.868140067397565908e-09
-1.892834571519999483e-08 -2.962069462498522162e-08 -2.292801012587291269e-08 -1.465743869173689519e-08 -3.039440236193945789e-08 -2.254201076340061402e-08 -7.151725145913655994e-09 -7.157509285083508482e-09
-1.871530838847999941e-08 -2.966500243536320406e-08 -2.283578376696300261e-08 -1.422639194271664609e-08 -3.010391067627718705e-08 -2.212840989795355648e-08 -6.492434558813537347e-09 -6.535574991392513172e-09
-1.850227106176000068e-08 -2.971584694776053047e-08 -2.273563079894980885e-08 -1.379477937287832889e-08 -2.981653167762759622e-08 -2.176439075777345646e-08 -5.899243436462725489e-09 -5.993329958619621105e-09
-1.828923373503999534e-08 -2.977165260304921135e-08 -2.262776913444396619e-08 -1.336554199636362134e-08 -2.953217206881947275e-08 -2.144386397881812100e-08 -5.368120671593371290e-09 -5.522080564419583448e-09
-1.807619640831999661e-08 -2.983126084826529523e-08 -2.251252556957412206e-08 -1.294143347010202239e-08 -2.925036273385432733e-08 -2.116124698387222403e-08 -4.894663155838544651e-09 -5.113631658570873648e-09
-1.786315908159999458e-08 -2.989384204168446214e-08 -2.239031066229495247e-08 -1.252497824725031616e-08 -2.897043712527751725e-08 -2.091151133615372230e-08 -4.474285292330174581e-09 -4.760398864582087294e-09
-1.765012175487999585e-08 -2.996275564122485189e-08 -2.226159206544229166e-08 -1.211843899062575306e-08 -2.869225072135637929e-08 -2.069018873739773306e-08 -4.102371329292336750e-09 -4.455465095149442884e-09
-1.743708442815999713e-08 -3.004256546677309965e-08 -2.212667402711565763e-08 -1.172379373032789064e-08 -2.841561163018591472e-08 -2.049335007119983195e-08 -3.774393029605147284e-09 -4.192596039461523947e-09
-1.722406486983376043e-08 -3.012677252405636203e-08 -2.198514424216534740e-08 -1.134272272764557417e-08 -2.814029679478356861e-08 -2.031756829146994152e-08 -3.485996504015507213e-09 -3.966226774840052705e-09
-1.701188722830937056e-08 -3.021282019857812902e-08 -2.183777114832475320e-08 -1.097660453935762175e-08 -2.786607980939147298e-08 -2.015987295491378195e-08 -3.233062689270684149e-09 -3.771429239752988979e-09
-1.680351487457741981e-08 -3.029973125773592332e-08 -2.168544750659798035e-08 -1.062652040235307319e-08 -2.759275092825146641e-08 -2.001770169643253233e-08 -3.011746048009960661e-09 -3.603868006528498653e-09
-1.660360742896089844e-08 -3.038716473732122187e-08 -2.152898293615619685e-08 -1.029326579130041604e-08 -2.732013057887397034e-08 -1.988885213822389149e-08 -2.818495842142947256e-09 -3.459749873971560690e-09
-1.431582669180297758e-08 -2.661099447539541583e-08 -1.872337934869339142e-08 -8.765473257023857480e-09 -2.376506261395749972e-08 -1.740001949094006105e-08 -2.315392330227377105e-09 -2.888899011263160378e-09
-1.416034819799454120e-08 -2.669975845077214080e-08 -1.866370156651240527e-08 -8.562787394683462419e-09 -2.368195022896479844e-08 -1.743725129010676265e-08 -2.188552089569470131e-09 -2.776023043587400004e-09
-1.401857694431894967e-08 -2.678151523769842771e-08 -1.859958220151918034e-08 -8.370248466940897631e-09 -2.358288992614408530e-08 -1.746223478992592269e-08 -2.076211996297822087e-09 -2.677134611614030689e-09
-1.389323267965577122e-08 -2.686085742199110181e-08 -1.853115490309161108e-08 -8.187847258359633228e-09 -2.346997676375980481e-08 -1.747711130527581652e-08 -1.976824864535250500e-09 -2.590474457843691584e-09
-1.378785097803364106e-08 -2.693918389561174525e-08 -1.845855114447503412e-08 -8.015493110608726344e-09 -2.334501386860409621e-08 -1.748362420691126829e-08 -1.888982300027781000e-09 -2.514492726856779051e-09
-1.370739066163437758e-08 -2.701662727736346300e-08 -1.838189996394019607e-08 -7.853024415261512489e-09 -2.320956962099588129e-08 -1.748319876658153826e-08 -1.811407605268215004e-09 -2.447827063369197570e-09
-1.365848452959464581e-08 -2.709282602585813638e-08 -1.830132809804629527e-08 -7.700218886329258570e-09 -2.306502057082855424e-08 -1.747700445903507267e-08 -1.742947764693310313e-09 -2.389282210928432034e-09
-1.364865564775010901e-08 -2.716848729490484898e-08 -1.821696070115412473e-08 -7.556803450069103150e-09 -2.291258364554183587e-08 -1.746600399180129710e-08 -1.682564924091090993e-09 -2.337811238731221529e-09
-1.368727313158034936e-08 -2.724413044174538106e-08 -1.812892180391021308e-08 -7.422463623369741522e-09 -2.275334132839249469e-08 -1.745099217911291469e-08 -1.629327678502176918e-09 -2.292498432786117938e-09
-1.378657021576279175e-08 -2.731994460120355904e-08 -1.803733457909834907e-08 -7.296852232209660281e-09 -2.258826133505058971e-08 -1.743262696470857893e-08 -1.582402408025495495e-09 -2.252543828542612461e-09
-1.396258047654495556e-08 -2.739611006153293801e-08 -1.794243615501950602e-08 -7.179597392050274327e-09 -2.241821225504466846e-08 -1.741145432029141583e-08 -1.541044836168613489e-09 -2.217249316257599411e-09
-1.423831975366645989e-08 -2.747252556418237295e-08 -1.784524910708274423e-08 -7.070309698667450980e-09 -2.224397603580151461e-08 -1.738792832904602889e-08 -1.504591935639053797e-09 -2.186006228011223240e-09
-1.464475107421788196e-08 -2.754926554665501908e-08 -1.774692142411022188e-08 -6.968588612479203848e-09 -2.206625837579355216e-08 -1.736242745531091477e-08 -1.472454264266502650e-09 -2.158284296185408465e-09
-1.522620460788532338e-08 -2.762603953881349780e-08 -1.764838727163323021e-08 -6.874028060148325616e-09 -2.188569741798965074e-08 -1.733526777607051725e-08 -1.444108782280518786e-09 -2.133621869865753319e-09
-1.604917071976654628e-08 -2.770244521235912901e-08 -1.755035026447852439e-08 -6.786221252583442783e-09 -2.170242409992174465e-08 -1.730671377894085393e-08 -1.419063223802539279e-09 -2.111617271918764785e-09
-1.719990318983239591e-08 -2.778630261554960119e-08 -1.745327470123795592e-08 -6.704764788993288058e-09 -2.151624056747790479e-08 -1.727698719966378650e-08 -1.396866342949518636e-09 -2.091921186498122684e-09
-1.878391059192425481e-08 -2.787330748867138557e-08 -1.735752698520233814e-08 -6.629262107449110657e-09 -2.132895179859602615e-08 -1.724627427517079166e-08 -1.377243897952638953e-09 -2.074229967092661826e-09
-2.098063857858622790e-08 -2.796052737169539444e-08 -1.726339653256435649e-08 -6.559326317882109588e-09 -2.114098105248301283e-08 -1.721473171247257782e-08 -1.359874098024606302e-09 -2.058279766762743948e-09
-2.408361075936242056e-08 -2.804762244458673189e-08 -1.717109511509733086e-08 -6.494582452728555835e-09 -2.095271519376619580e-08 -1.718249160973103790e-08 -1.344473668664530573e-09 -2.043841397396516724e-09
-2.839766181546079508e-08 -2.813458412303068844e-08 -1.708078117719478499e-08 -6.434669234373147720e-09 -2.076450809072390862e-08 -1.714966552158278889e-08 -1.330793552270655250e-09 -2.030715833979634199e-09
-2.970212296111166162e-08 -2.512501590121445840e-08 -1.522204173371900253e-08 -5.737113396818953809e-09 -1.847841143712368445e-08 -1.536178743807271542e-08 -1.200458530070336073e-09 -1.808585715845819779e-09
-3.013583100903629477e-08 -2.520569150860063369e-08 -1.523655451916265598e-08 -5.745727911318145151e-09 -1.845530328902447584e-08 -1.544247098113093638e-08 -1.214298301714707680e-09 -1.809283866987070362e-09
-3.010915080747146942e-08 -2.528595582381998729e-08 -1.524597015742657238e-08 -5.752788768163044078e-09 -1.841445498352873108e-08 -1.550790433047140468e-08 -1.226171080285755301e-09 -1.809476352758776709e-09
-3.008352280546919249e-08 -2.536599558178824459e-08 -1.525090299727457312e-08 -5.758440852103132435e-09 -1.835881738177155370e-08 -1.556042199005922850e-08 -1.236310014647318940e-09 -1.809224474438201327e-09
-3.005924614037624616e-08 -2.544592962281037798e-08 -1.525188503145264241e-08 -5.762816352339176025e-09 -1.829084660925020416e-08 -1.560196003250944232e-08 -1.244921612569865097e-09 -1.808582185620854975e-09
-3.003639140713164100e-08 -2.552590538865023102e-08 -1.524939528828425225e-08 -5.766035840121921617e-09 -1.821260426411401680e-08 -1.563413254812149397e-08 -1.252188715090742498e-09 -1.807596977078742837e-09
-3.001490131745828647e-08 -2.560599899670864253e-08 -1.524384597075306862e-08 -5.768209253700152223e-09 -1.812583272064146592e-08 -1.565829154135569107e-08 -1.258273139844581000e-09 -1.806310654053778649e-09
-2.999466167327194610e-08 -2.568622452873077485e-08 -1.523555295768640430e-08 -5.769436774808162019e-09 -1.803201276491700015e-08 -1.567557430936684685e-08 -1.263318031533951076e-09 -1.804760019479589830e-09
-2.997555948822672519e-08 -2.576660166882708200e-08 -1.522479021408049170e-08 -5.769809626022059234e-09 -1.793240869090368434e-08 -1.568694123799113290e-08 -1.267449953117805842e-09 -1.802977474480480256e-09
-2.995745334292585836e-08 -2.584714844068897538e-08 -1.521181103760351166e-08 -5.769410806133910353e-09 -1.782810386186588280e-08 -1.569320618799295049e-08 -1.270780746915395789e-09 -1.800991546433664638e-09
-2.994023789537530283e-08 -2.592786347445425406e-08 -1.519683839932624663e-08 -5.768315765562473971e-09 -1.772002929337120313e-08 -1.569506109400807954e-08 -1.273409191242449021e-09 -1.798827353283321661e-09
-2.992385687446211499e-08 -2.600874894359244395e-08 -1.518009071565106293e-08 -5.766593029515627117e-09 -1.760898690486373582e-08 -1.569309600341072487e-08 -1.275422475178850603e-09 -1.796507012031934383e-09
-2.990826995416249996e-08 -2.608982534430060690e-08 -1.516179807653866028e-08 -5.764304775075790745e-09 -1.749566857932883280e-08 -1.568781549319662840e-08 -1.276897511359897208e-09 -1.794049998044140151e-09
-2.989325031183535359e-08 -2.617111127334142532e-08 -1.514215519323189312e-08 -5.761507363128780596e-09 -1.738067215858736806e-08 -1.567965218847096549e-08 -1.277902104425617023e-09 -1.791473461168002108e-09
-2.987874762500150558e-08 -2.625262737128629503e-08 -1.512132158557847013e-08 -5.758251828677286634e-09 -1.726451423710187950e-08 -1.566897794638587747e-08 -1.278495990903414202e-09 -1.788792503956878796e-09
-2.986488899068420999e-08 -2.633438867791503129e-08 -1.509942463773259614e-08 -5.754584333217635234e-09 -1.714764135301202906e-08 -1.565611314722936867e-08 -1.278731764122638364e-09 -1.786020426491567668e-09
-2.985175859694059711e-08 -2.641641109064802846e-08 -1.507656644009379902e-08 -5.750546581462525866e-09 -1.703043972139906699e-08 -1.564133444334226062e-08 -1.278655696808349747e-09 -1.783168941779651779e-09
-2.983940961403051008e-08 -2.649871099124604198e-08 -1.505282915246584873e-08 -5.746176206948383870e-09 -1.691324331355920790e-08 -1.562488124462009537e-08 -1.278308472309261739e-09 -1.780248365490122489e-09
-2.982787695326574261e-08 -2.658130472366866591e-08 -1.502827965423056688e-08 -5.741507127526188778e-09 -1.679634044334078296e-08 -1.560696116371880907e-08 -1.277725834296886809e-09 -1.777267782848246969e-09
-2.981718585222620981e-08 -2.666420879327268579e-08 -1.500297705597696445e-08 -5.736569873648416796e-09 -1.667997959237721757e-08 -1.558775460235156683e-08 -1.276939163746903924e-09 -1.774235195630642153e-09
-3.575619673410477001e-08 -3.208513278186670717e-08 -1.772961152489978171e-08 -6.742095239794035342e-09 -1.951776573505384928e-08 -1.843093268093083804e-08 -1.471637386065183978e-09 -2.101265116627675114e-09
-3.572575477657601821e-08 -3.217997651045130305e-08 -1.747758165951991171e-08 -6.614758275392771292e-09 -1.907309153776596899e-08 -1.818717297254352451e-08 -1.419815773221220948e-09 -2.076338052273965088e-09
-3.569640003854260565e-08 -3.227723502283835471e-08 -1.724811641745010034e-08 -6.501422519489399740e-09 -1.867781088035525570e-08 -1.797262734761403163e-08 -1.375761546215042675e-09 -2.054218518837831908e-09
-3.566880801654262458e-08 -3.237539008703181705e-08 -1.703886457313816765e-08 -6.400585629273121130e-09 -1.832501881777442691e-08 -1.778321664990702645e-08 -1.338298852979700470e-09 -2.034513613574094389e-09
-3.564347800174354166e-08 -3.247426750065925076e-08 -1.684761542178194148e-08 -6.310876952466838585e-09 -1.800856916210124883e-08 -1.761536841149676583e-08 -1.306422798046550103e-09 -2.016885240780162781e-09
-3.562075358306041905e-08 -3.257391407921870686e-08 -1.667232108990083621e-08 -6.231052207149464912e-09 -1.772308805704302442e-08 -1.746597873921025414e-08 -1.279276149903414633e-09 -2.001042574356988610e-09
-3.560084407194923396e-08 -3.267434692885753738e-08 -1.651110435617528453e-08 -6.159986799641039346e-09 -1.746393681721479300e-08 -1.733236781156544815e-08 -1.256128855944055289e-09 -1.986735528856808940e-09
-3.558386180943503564e-08 -3.277557685323823682e-08 -1.636225787837337515e-08 -6.096668276984214867e-09 -1.722715417433126428e-08 -1.721223340541428472e-08 -1.236360119838815768e-09 -1.973749111053211126e-09
-3.556987987722146423e-08 -3.287761314361331526e-08 -1.622425008518076043e-08 -6.040188320711122175e-09 -1.700939056152365650e-08 -1.710360533955178367e-08 -1.219442793357243107e-09 -1.961898539159782739e-09
-3.555893203452483709e-08 -3.298045990137528459e-08 -1.609576921816303325e-08 -5.989734604364449729e-09 -1.680783270387856582e-08 -1.700480259219549369e-08 -1.204929836010191928e-09 -1.951025029551075455e-09
-3.552261932555279291e-08 -3.295806220804247827e-08 -1.586887049623186286e-08 -5.905054090614759612e-09 -1.662012982864821032e-08 -1.691439404747121208e-08 -1.192442606841904776e-09 -1.940992162643134507e-09
-3.543862488595758846e-08 -3.272906532516624628e-08 -1.549752409992257561e-08 -5.770614912047708296e-09 -1.644432540950934049e-08 -1.683116328671369372e-08 -1.181660770848278628e-09 -1.931682750525604355e-09
-3.535186279886497630e-08 -3.249851422441138965e-08 -1.516131499505760616e-08 -5.652941536704408998e-09 -1.627879567943135909e-08 -1.675407748115619589e-08 -1.172313619005041365e-09 -1.922996138890381718e-09
-3.526263493008054268e-08 -3.226624034551771230e-08 -1.485482115602529086e-08 -5.549294938004987246e-09 -1.612219557246295212e-08 -1.668226022267319296e-08 -1.164172620681145816e-09 -1.914845884085279309e-09
-3.517120518908552087e-08 -3.203219192180863524e-08 -1.457347238819849764e-08 -5.457384103146369738e-09 -1.597341161495095772e-08 -1.661496800213651151e-08 -1.157045046620196601e-09 -1.907157753913360009e-09
-3.507776638687385119e-08 -3.179635606888490477e-08 -1.431342932244994327e-08 -5.375293190419956597e-09 -1.583152267056222768e-08 -1.655156999012026080e-08 -1.150768518667457085e-09 -1.899868008215828910e-09
-3.498248961880835244e-08 -3.155873460827045253e-08 -1.407147193611947072e-08 -5.301419877578958942e-09 -1.569576640997729245e-08 -1.649153074611049569e-08 -1.145206358726616592e-09 -1.892921919859802384e-09
-3.488551590423964644e-08 -3.131933620407579883e-08 -1.384489995598707167e-08 -5.234423455314110246e-09 -1.556551074458792329e-08 -1.643439549784434297e-08 -1.140243626355329128e-09 -1.886272503353019949e-09
-3.478697000392899156e-08 -3.107817345911818258e-08 -1.363144963845967737e-08 -5.173181294802091451e-09 -1.544023042381567327e-08 -1.637977764762260139e-08 -1.135783747582163412e-09 -1.879879422147196496e-09
-3.468695645088573345e-08 -3.083526202940145523e-08 -1.342922491190676818e-08 -5.116752446513344477e-09 -1.531948719965493948e-08 -1.632734819921218628e-08 -1.131745650718315376e-09 -1.873708049595377091e-09
-3.969784002944497403e-08 -3.511455874225445403e-08 -1.502534517055380095e-08 -5.737027393425107738e-09 -1.709335629905217909e-08 -1.848587212733472414e-08 -1.274739053705006682e-09 -2.154752159589267949e-09
-3.954314952722335285e-08 -3.481452661629086792e-08 -1.466567151393751846e-08 -5.614086321821076730e-09 -1.665210434227208018e-08 -1.825131742079206254e-08 -1.252776414063052256e-09 -2.155582876064888127e-09
-3.938652253036586868e-08 -3.451738921844704315e-08 -1.434141066803183281e-08 -5.506230001311644911e-09 -1.627912933493386510e-08 -1.804741356270250449e-08 -1.234812183114524215e-09 -2.155240493138073027e-09
-3.922928281049239323e-08 -3.422038866413550123e-08 -1.404663926274868789e-08 -5.410889422576026974e-09 -1.596071828691535696e-08 -1.786917929641821727e-08 -1.220054472320315236e-09 -2.153916832280575087e-09
-3.907225449840739026e-08 -3.392228959654440066e-08 -1.377645905662865683e-08 -5.325931827142138253e-09 -1.568587920526392282e-08 -1.771241109086297659e-08 -1.207868172097578662e-09 -2.151772750111199908e-09
-3.891583868687080641e-08 -3.362253551273681975e-08 -1.352681908658980204e-08 -5.249586067279000886e-09 -1.544587564076478228e-08 -1.757358083120747421e-08 -1.197744070418945863e-09 -2.148943155828303425e-09
-3.876021468127560045e-08 -3.332088011383291579e-08 -1.329435911943157616e-08 -5.180380318882507976e-09 -1.523380623203699337e-08 -1.744973942016452629e-08 -1.189273995987396275e-09 -2.145541210278533043e-09
-3.860548309234897049e-08 -3.301722506628067161e-08 -1.307631448587865061e-08 -5.117090298322702142e-09 -1.504423959833322696e-08 -1.733842924360457186e-08 -1.182130831690356100e-09 -2.141661841774226885e-09
-3.845157349328584165e-08 -3.271154368439027846e-08 -1.287039368424598478e-08 -5.058696332802465068e-09 -1.487291233081136980e-08 -1.723760669978132051e-08 -1.176052457312716306e-09 -2.137384690939918218e-09
-3.829839099898411513e-08 -3.240384556967578433e-08 -1.267470000922450114e-08 -5.004347835996937890e-09 -1.471648235605804908e-08 -1.714557491525680571e-08 -1.170828858714477232e-09 -2.132776578174080085e-09
-3.814581086160343785e-08 -3.209415954962184922e-08 -1.248766065646378873e-08 -4.953333954067113393e-09 -1.457232971836191962e-08 -1.706092608533667613e-08 -1.166291783374200600e-09 -2.127893571480939667e-09
-3.799367126597637269e-08 -3.178252501117602228e-08 -1.230796177537200371e-08 -4.905059329227380355e-09 -1.443839873218990362e-08 -1.698249259594022832e-08 -1.162306443719897341e-09 -2.122782719794944514e-09
-3.784181937355760436e-08 -3.146898777985084130e-08 -1.213450212861630592e-08 -4.859024097539194031e-09 -1.431307330496988547e-08 -1.690930590503913397e-08 -1.158764864718650539e-09 -2.117483506262201734e-09
-3.768955904359244844e-08 -3.115359650017492653e-08 -1.196633530550220237e-08 -4.814807381649466544e-09 -1.419507949178361622e-08 -1.684056216879163135e-08 -1.155580551499071739e-09 -2.112029066806821848e-09
-3.753648033368340202e-08 -3.083640292202479888e-08 -1.180262892793655019e-08 -4.772053662871036420e-09 -1.408340838753779509e-08 -1.677559364138287688e-08 -1.152684215887639299e-09 -2.106447212312177517e-09
-3.738254523533404416e-08 -3.051746211309304946e-08 -1.164268272958677171e-08 -4.730461529742971214e-09 -1.397725729171381514e-08 -1.671384495909209403e-08 -1.150020352166595749e-09 -2.100761285662452069e-09
-3.722777402811947717e-08 -3.019683179548801927e-08 -1.148590979151856028e-08 -4.689774378729649618e-09 -1.387598375376538762e-08 -1.665485353384502173e-08 -1.147544493712270674e-09 -2.094990880829592476e-09
-3.707220047358969345e-08 -2.987457208586471294e-08 -1.133181719816362574e-08 -4.649772722354079385e-09 -1.377906974708031919e-08 -1.659823337244796285e-08 -1.145221015303686514e-09 -2.089152446060534055e-09
-3.691584613362686065e-08 -2.955074447907766813e-08 -1.117998216727640324e-08 -4.610267817957912185e-09 -1.368609463714269382e-08 -1.654366174618472172e-08 -1.143021372771319492e-09 -2.083259789884260677e-09
-3.675864665505907550e-08 -2.922541099411842222e-08 -1.103003823119003028e-08 -4.571096383571916088e-09 -1.359671363266703060e-08 -1.649086821486192056e-08 -1.140922692990774711e-09 -2.077324505724568162e-09
-4.368102511111759090e-08 -3.449780547357417163e-08 -1.283390659464849148e-08 -5.324858360750820973e-09 -1.566175207950344077e-08 -1.931074153432075460e-08 -1.301954997179558934e-09 -2.462964827083575143e-09
-4.337540099606647998e-08 -3.404304800492256299e-08 -1.250314565826146518e-08 -5.196238605527976696e-09 -1.518223719363526149e-08 -1.895712906640051453e-08 -1.252877078865012598e-09 -2.442645382560364843e-09
-4.307820561941800834e-08 -3.360113653057034195e-08 -1.220136145427570629e-08 -5.081531613156643500e-09 -1.480200492778947418e-08 -1.866058604616039175e-08 -1.214797181114440415e-09 -2.424467962461269724e-09
-4.279184645729046401e-08 -3.316685065076879623e-08 -1.192365356346149693e-08 -4.978394679852576948e-09 -1.449784579795766526e-08 -1.841031528501261260e-08 -1.185170100688502732e-09 -2.408033602693082026e-09
-4.251652071642553112e-08 -3.273693059171170152e-08 -1.166594186358609467e-08 -4.884864643177288015e-09 -1.425202425077026343e-08 -1.819746633777721169e-08 -1.162037606992054228e-09 -2.393018569746992037e-09
-4.225358122255306076e-08 -3.230933042759284050e-08 -1.142474956438395134e-08 -4.799294879252201122e-09 -1.405105264597979697e-08 -1.801484033198529740e-08 -1.143894116124129659e-09 -2.379160226366292218e-09
-4.200207302409033297e-08 -3.188277340691526193e-08 -1.119713257941967707e-08 -4.720302390801605038e-09 -1.388471277639565612e-08 -1.785661516605653647e-08 -1.129582671090762381e-09 -2.366245536192714037e-09
-4.175955889152504963e-08 -3.145647460252758898e-08 -1.098076319530385725e-08 -4.646723517918604532e-09 -1.374527780333090996e-08 -1.771810167168656838e-08 -1.118214570887092991e-09 -2.354101719496814223e-09
-4.152407107517776859e-08 -3.102996201705374617e-08 -1.077379888360622802e-08 -4.577576957635602993e-09 -1.362690576076114242e-08 -1.759553403438871168e-08 -1.109107379337588411e-09 -2.342588662728685310e-09
-4.129417798753869237e-08 -3.060296498770541428e-08 -1.057481727323258929e-08 -4.512032942905620015e-09 -1.352517344303320881e-08 -1.748589360818165109e-08 -1.101737171262820007e-09 -2.331592753966002913e-09
-4.106862506232808390e-08 -3.017534292873951258e-08 -1.038259780530442826e-08 -4.449387575154902525e-09 -1.343672261164555562e-08 -1.738676313597043966e-08 -1.095701783259413510e-09 -2.321021878533170560e-09
-4.084640475011067653e-08 -2.974704013002313525e-08 -1.019606507419021294e-08 -4.389041455202237742e-09 -1.335899284013968044e-08 -1.729620752238789123e-08 -1.090692554495901237e-09 -2.310801358006914706e-09
-4.062675611444626647e-08 -2.931805680537134011e-08 -1.001426742691106432e-08 -4.330481899277238022e-09 -1.329002129794981174e-08 -1.721267715991968440e-08 -1.086472608230785488e-09 -2.300870654294049177e-09
-4.040910278157044349e-08 -2.888843037406443867e-08 -9.836359662442216712e-09 -4.273268131097664757e-09 -1.322829306012009588e-08 -1.713493005102536575e-08 -1.082860167980947306e-09 -2.291180696155127364e-09
-4.019299663005250089e-08 -2.845822311180136836e-08 -9.661580957977943946e-09 -4.217018944117458812e-09 -1.317262954107414061e-08 -1.706196936794662655e-08 -1.079715745200750570e-09 -2.281691710532091967e-09
-3.997811969676460792e-08 -2.802751401787515648e-08 -9.489251002656189848e-09 -4.161402409000570507e-09 -1.312210540696833540e-08 -1.699299357132010958e-08 -1.076932302822073930e-09 -2.272371463425183661e-09
-3.976421714343565032e-08 -2.759639337851753128e-08 -9.318759067100020969e-09 -4.106127274709353678e-09 -1.307598667731462115e-08 -1.692735666461614775e-08 -1.074427704791649327e-09 -2.263193833447480570e-09
-3.955121026319534687e-08 -2.716495917318002418e-08 -9.149560459228632957e-09 -4.050935771346037974e-09 -1.303308324493064930e-08 -1.686453658074840388e-08 -1.072138921242408662e-09 -2.254137654745374194e-09
-3.933900763759522138e-08 -2.673331454697643855e-08 -8.981170223317175061e-09 -3.995597572761670136e-09 -1.299048371602382306e-08 -1.680411006655859643e-08 -1.070017581480062861e-09 -2.245185778557510333e-09
-3.912753151223136016e-08 -2.630156582482272083e-08 -8.813149867710922774e-09 -3.939904701421965929e-09 -1.294695637821150289e-08 -1.674573276682219001e-08 -1.068026562284625146e-09 -2.236324314976291223e-09
-3.098141283764103627e-08 -2.091709914085845545e-08 -9.105423035752627394e-09 -6.005193588024874354e-09 -1.896100702610177267e-08 -1.984481016869782372e-08 -1.107173252927990627e-08 -1.010505446848911142e-08
-3.181032595166735008e-08 -2.158153681224950151e-08 -1.078139326584393774e-08 -8.221639326447050269e-09 -2.523705628746761419e-08 -2.481625151120347758e-08 -1.843069678328487420e-08 -1.624790860867073048e-08
-3.252458469097700804e-08 -2.216238998901314104e-08 -1.195535121832716549e-08 -9.856955072079513457e-09 -2.982787998223693388e-08 -2.847906697357986575e-08 -2.393099545743379976e-08 -2.088724278096553020e-08
-3.312748565736533155e-08 -2.275973801539543843e-08 -1.275090740977085237e-08 -1.104455694467122228e-08 -3.331797313951543429e-08 -3.125901301819644124e-08 -2.817340836383912590e-08 -2.447721547053911110e-08
-3.361285179174097914e-08 -2.337453754862361764e-08 -1.327652037258725735e-08 -1.187990147498083004e-08 -3.604903509247662392e-08 -3.341460084689768335e-08 -3.152822103646515595e-08 -2.730782831911505731e-08
-3.400590165943254516e-08 -2.400065693919487713e-08 -1.364553613223501962e-08 -1.243752500246232914e-08 -3.823482103545484415e-08 -3.511379271418928854e-08 -3.423535130440506398e-08 -2.957241153155057987e-08
-3.437270069761508116e-08 -2.463218957575190116e-08 -1.392336258608688474e-08 -1.281912117288554670e-08 -4.001605292769432234e-08 -3.648221748254041117e-08 -3.645664087881913365e-08 -3.140450706300393254e-08
-3.485294424866715800e-08 -2.575391485991540442e-08 -1.542792332417558552e-08 -1.431783926865785986e-08 -4.148917349921831021e-08 -3.760330243235413707e-08 -3.830495753069040175e-08 -3.290067245929255055e-08
-3.534257821290621002e-08 -2.702798075923995672e-08 -1.757562761550108519e-08 -1.643610493451549850e-08 -4.272247399966451131e-08 -3.853452829974539461e-08 -3.986124895423175130e-08 -3.414126764521216404e-08
-3.577391778523267889e-08 -2.819588981478299912e-08 -1.971907931209932291e-08 -1.856321582700358720e-08 -4.376564376926109350e-08 -3.931806157532407227e-08 -4.118497408788099790e-08 -3.518186379016223169e-08
-3.615228546980288674e-08 -2.926349093894418737e-08 -2.183920884146836564e-08 -2.068069522952877339e-08 -4.465567956887430867e-08 -3.998560107785193643e-08 -4.232071932006019900e-08 -3.606297216263456872e-08
-3.648259735027309504e-08 -3.023697773932455266e-08 -2.392056235132867528e-08 -2.277284548248568159e-08 -4.542067900315427174e-08 -4.056145709089048507e-08 -4.330252769108436681e-08 -3.681577381978827215e-08
-3.676939776082493230e-08 -3.112271121968147302e-08 -2.595126939247134461e-08 -2.482709670965765521e-08 -4.608235271024589606e-08 -4.106458467770747165e-08 -4.415680934830500854e-08 -3.746470572400052516e-08
-3.701690406432056755e-08 -3.192708491672113932e-08 -2.792368279219642168e-08 -2.683298066548759452e-08 -4.665773318366583745e-08 -4.150996494416930350e-08 -4.490437638535661070e-08 -3.802919994412762246e-08
-3.722902902785450115e-08 -3.265642304055923688e-08 -2.983158499384329679e-08 -2.878258837169545923e-08 -4.716036474335581374e-08 -4.190956575265411400e-08 -4.556186770085362438e-08 -3.852489056338839456e-08
-3.740941393097919666e-08 -3.331690360055132799e-08 -3.167070809999399874e-08 -3.067040914355788752e-08 -4.760114928821709688e-08 -4.227302365977680749e-08 -4.614252597307491978e-08 -3.896446869714709994e-08
-3.756146441965898333e-08 -3.391450042182572543e-08 -3.343881560712358676e-08 -3.249303531766641218e-08 -4.798896290288098755e-08 -4.260813714851948565e-08 -4.665713818167615598e-08 -3.935829891696883448e-08
-3.768835866806307924e-08 -3.445493936577469114e-08 -3.513534472769603746e-08 -3.424885459475612603e-08 -4.833111482428957767e-08 -4.292122963389231416e-08 -4.711459054100240215e-08 -3.971487101886761639e-08
-3.779306768465810556e-08 -3.494366546602018410e-08 -3.676108264062201662e-08 -3.593775194561156542e-08 -4.863366105806680686e-08 -4.321742121438061210e-08 -4.752226760307997681e-08 -4.004113707504162169e-08
-3.787836446765308443e-08 -3.538581880407291011e-08 -3.831788358365941958e-08 -3.756083475093525415e-08 -4.890165979038972713e-08 -4.350083559045869077e-08 -4.788635593763164435e-08 -4.034276826610119544e-08
-5.496006725053224397e-08 -5.127998899559444241e-08 -5.677107707057643357e-08 -5.579565629628542975e-08 -6.885925196285208199e-08 -6.227955672094983311e-08 -6.666701571616394699e-08 -5.750976784856743874e-08
-5.476243104999167215e-08 -5.116363718944052092e-08 -5.790688932800599604e-08 -5.698726022089791705e-08 -6.553628922355131919e-08 -6.112172899594021670e-08 -6.252224114171566264e-08 -5.607378281418156820e-08
-5.458969009025936258e-08 -5.118888665097173911e-08 -5.913484272650006197e-08 -5.818028519067326771e-08 -6.126267835914761496e-08 -5.980386234303434084e-08 -5.736085518366856297e-08 -5.435652755994889735e-08
-5.446164290098295714e-08 -5.135957939259102887e-08 -6.035225002121746428e-08 -5.925172675210830623e-08 -5.620387155067685159e-08 -5.825320649853969557e-08 -5.138982803810724834e-08 -5.228163106039518563e-08
-5.439616449145249193e-08 -5.167900759803762137e-08 -6.142725045266641604e-08 -6.004815615270674548e-08 -5.065635036043670533e-08 -5.640761360785410689e-08 -4.493464392747465416e-08 -4.979477020483132347e-08
-5.441045598380612826e-08 -5.214999717966008489e-08 -6.219696069602695563e-08 -6.039220132894486484e-08 -4.498761227017703474e-08 -5.422747270503638173e-08 -3.837531931568001788e-08 -4.687563530282035523e-08
-5.452014852517586781e-08 -5.277485058235176061e-08 -6.247660447187233095e-08 -6.009530129364548096e-08 -3.955529637349178729e-08 -5.170655092084391762e-08 -3.207125194633918964e-08 -4.353298986195805482e-08
-5.474650546447572275e-08 -5.355516617213963929e-08 -6.207920733115497472e-08 -5.898287162199250729e-08 -3.463723836484580099e-08 -4.887531590348189339e-08 -2.630182288399473443e-08 -3.984297709435030924e-08
-5.510285972766670707e-08 -5.449154849033186587e-08 -6.084626041406204195e-08 -5.692925560670843660e-08 -3.039597226977548789e-08 -4.579487245713378824e-08 -2.123850710960849278e-08 -3.593902207836412213e-08
-5.553509999999999944e-08 -5.553509999999999944e-08 -5.861054173072647984e-08 -5.382583227679694144e-08 -2.688131120267625443e-08 -4.258564992908385649e-08 -1.694802853396381570e-08 -3.196870587599612238e-08
-5.553509999999999944e-08 -5.553509999999999944e-08 -5.394654526912706081e-08 -4.848014502600446527e-08 -2.405809765287051024e-08 -3.937954206443536347e-08 -1.341525903902108687e-08 -2.807476849761598169e-08
-5.553509999999999944e-08 -5.553496303259415746e-08 -4.900818922019194058e-08 -4.296703649242901133e-08 -2.184155465457758024e-08 -3.629618363283275912e-08 -1.057259134655191851e-08 -2.437905964540197043e-08
-5.553509999999999944e-08 -5.553346219490383633e-08 -4.403875666942537467e-08 -3.753843659223138297e-08 -2.012763312683251863e-08 -3.342955605004926407e-08 -8.326406047963300156e-09 -2.097248697034878833e-08
-5.553509999999999944e-08 -5.552985129745373510e-08 -3.926409238464232957e-08 -3.241210385970494634e-08 -1.881336160410567514e-08 -3.084151281667738658e-08 -6.576465654297752526e-09 -1.791181234952784275e-08
-5.553509999999999944e-08 -5.552396466393495350e-08 -3.486110983262990832e-08 -2.774740476807861071e-08 -1.780764962917834002e-08 -2.856208116989675081e-08 -5.227884175439096039e-09 -1.522196714884269578e-08
-5.553509999999999944e-08 -5.551589672898923024e-08 -3.094232167755467746e-08 -2.363707877800445072e-08 -1.703526164320881892e-08 -2.659458043359592354e-08 -4.197174287640008813e-09 -1.290193536267580543e-08
-5.553509999999999944e-08 -5.550573951340798449e-08 -2.755680349403936141e-08 -2.011271350037157863e-08 -1.643679500921835325e-08 -2.492299593082580990e-08 -3.414305561170759635e-09 -1.093206539397015035e-08
-5.553509999999999944e-08 -5.549348787140566426e-08 -2.470155093316045568e-08 -1.715844425498483259e-08 -1.596676463933512254e-08 -2.351944755764579907e-08 -2.822432810903536051e-09 -9.281109189785193527e-09
-5.553509999999999944e-08 -5.547902898561650969e-08 -2.233790581444323292e-08 -1.472718195393289413e-08 -1.559107653181443840e-08 -2.235044094228232124e-08 -2.376472384478171394e-09 -7.912063999281316229e-09
-5.553509999999999944e-08 -5.546215963489496670e-08 -2.040754551872241480e-08 -1.275532479997279738e-08 -1.528455456433240330e-08 -2.138140690257142694e-08 -2.041260663956380141e-09 -6.786494920886876375e-09
-4.780269000000000173e-08 -4.773410482286481016e-08 -1.682752628866010463e-08 -1.010487889704164108e-08 -1.353471669447867607e-08 -1.818607325163989471e-08 -1.845787093976038989e-09 -5.350964837519800624e-09
-4.780269000000000173e-08 -4.772623756536330373e-08 -1.620661606232448986e-08 -9.388406262864725538e-09 -1.378871753973312065e-08 -1.798944308794336656e-08 -1.914379922842850003e-09 -4.941267975993965054e-09
-4.780269000000000173e-08 -4.771635930519910044e-08 -1.568276124659674375e-08 -8.802793712834296051e-09 -1.395265620749591951e-08 -1.781125859905850586e-08 -1.967337337261082664e-09 -4.599813068889779158e-09
-4.780269000000000173e-08 -4.770443520902220582e-08 -1.523856367350057083e-08 -8.324712053177857641e-09 -1.405128603110083272e-08 -1.764884211440215319e-08 -2.008162939535215163e-09 -4.315637436515786188e-09
-4.780269000000000173e-08 -4.769037466952396388e-08 -1.485954583912574176e-08 -7.934443017305543903e-09 -1.410298464613044234e-08 -1.749996490809956224e-08 -2.039569969797643798e-09 -4.079347099016686862e-09
-4.780269000000000173e-08 -4.767404946652660937e-08 -1.453376394432872036e-08 -7.615543071219276397e-09 -1.412117812326438364e-08 -1.736276938348001598e-08 -2.063661807011413284e-09 -3.882957442518612527e-09
-4.780269000000000173e-08 -4.765530384356463143e-08 -1.425143119405516858e-08 -7.354440815201559618e-09 -1.411566454444664876e-08 -1.723570402226905658e-08 -2.082070383751274484e-09 -3.719725993919355098e-09
-4.780269000000000173e-08 -4.763396038394256037e-08 -1.400457577012273832e-08 -7.140024539915660127e-09 -1.409361092520551879e-08 -1.711746939895638039e-08 -2.096062663191899482e-09 -3.583989170116865702e-09
-4.780269000000000173e-08 -4.760982364347104525e-08 -1.378674522655671742e-08 -6.963252471104760879e-09 -1.406026419203635970e-08 -1.700697362270824149e-08 -2.106622750561202298e-09 -3.471009966253941433e-09
-4.780269000000000173e-08 -4.758268248651302825e-08 -1.359271237939905096e-08 -6.816802110127692248e-09 -1.401946220272012365e-08 -1.690329570210430365e-08 -2.114515338843260061e-09 -3.376840119569458913e-09
-4.780269000000000173e-08 -4.755231174482942024e-08 -1.341823656355056003e-08 -6.694764868560363003e-09 -1.397400468743724881e-08 -1.680565551082157327e-08 -2.120334806689682312e-09 -3.298198086255262807e-09
-4.780269000000000173e-08 -4.751847350282943361e-08 -1.325988203753837409e-08 -6.592386143668594396e-09 -1.392592441948508717e-08 -1.671338921434667728e-08 -2.124543258910576489e-09 -3.232362747814587830e-09
-4.780269000000000173e-08 -4.748091820849441419e-08 -1.311486491714621524e-08 -6.505847696777054440e-09 -1.387668671326540466e-08 -1.662592918425611263e-08 -2.127500027523089416e-09 -3.177081950503890051e-09
-4.780269000000000173e-08 -4.743938569794220395e-08 -1.298092629607558905e-08 -6.432087663784294831e-09 -1.382733692306512094e-08 -1.654278759222497846e-08 -2.129484567024450040e-09 -3.130494551467546428e-09
-4.780269000000000173e-08 -4.739360622689105039e-08 -1.285623721335319544e-08 -6.368653052817324295e-09 -1.377860989065793157e-08 -1.646354300276904761e-08 -2.130714233299919182e-09 -3.091064468792143976e-09
-4.780269000000000173e-08 -4.734330147021289955e-08 -1.273931941856455679e-08 -6.313579586049523184e-09 -1.373101079335663537e-08 -1.638782907884486346e-08 -2.131358097777692621e-09 -3.057525025626994585e-09
-4.780269000000000173e-08 -4.728818589818565975e-08 -1.262894585268669114e-08 -6.265295065868917359e-09 -1.368487636623326161e-08 -1.631532702064495491e-08 -2.131547672478703272e-09 -3.028833296251532610e-09
-4.780269000000000173e-08 -4.722796744711721749e-08 -1.252412526218935789e-08 -6.222540124297626816e-09 -1.364041948624357425e-08 -1.624575566347475999e-08 -2.131385268781835349e-09 -3.004130020508957750e-09
-4.780269000000000173e-08 -4.716234949117433983e-08 -1.242402913114673021e-08 -6.184306277836532778e-09 -1.359776302545599296e-08 -1.617886825935890741e-08 -2.130950475803966321e-09 -2.982708817564179379e-09
-4.780269000000000173e-08 -4.709103161696846356e-08 -1.232799004774346345e-08 -6.149784695306135163e-09 -1.355696446362412425e-08 -1.611444511402105798e-08 -2.130305207387120308e-09 -2.963988371891329648e-09
-3.485051999999999806e-08 -3.436755846934127221e-08 -1.004041389186383875e-08 -5.463026401841454584e-09 -1.114341512345281953e-08 -1.267173796973120329e-08 -2.576136928934482940e-09 -2.961956584892614961e-09
-3.485051999999999806e-08 -3.439051733234632878e-08 -1.088879200643198502e-08 -6.273557034621383843e-09 -1.213093316583075025e-08 -1.343171844015135885e-08 -3.416178502624923280e-09 -3.645489243091017940e-09
-3.485051999999999806e-08 -3.440415727557249003e-08 -1.157733770123637709e-08 -6.947782719493949398e-09 -1.291405011443638630e-08 -1.406242206793516843e-08 -4.109461732361211095e-09 -4.231117070430749901e-09
-3.485051999999999806e-08 -3.441078197562808233e-08 -1.213916142792158303e-08 -7.511087035807824677e-09 -1.354088563364336637e-08 -1.458952966520142244e-08 -4.684074285769458190e-09 -4.734663274138697851e-09
-3.485051999999999806e-08 -3.441191354346012357e-08 -1.259936778395848371e-08 -7.983407495827883249e-09 -1.404647017353686747e-08 -1.503263081411278431e-08 -5.162020590025533688e-09 -5.168966841384674055e-09
-3.485051999999999806e-08 -3.440858716062529100e-08 -1.297731493798093300e-08 -8.380595802052805126e-09 -1.445686558382159810e-08 -1.540692096873950947e-08 -5.560736610084289255e-09 -5.544541174979893645e-09
-3.485051999999999806e-08 -3.440152365549267495e-08 -1.328815111285266267e-08 -8.715388117247250383e-09 -1.479180957149527658e-08 -1.572435852134906095e-08 -5.894174091407566044e-09 -5.870066056144294445e-09
-3.485051999999999806e-08 -3.439123464718115002e-08 -1.354387685882697170e-08 -8.998110586012982420e-09 -1.506647141860047172e-08 -1.599447298968513656e-08 -6.173590998271126228e-09 -6.152760038846281912e-09
-3.485051999999999806e-08 -3.437808877715992901e-08 -1.375408990495563820e-08 -9.237201250435881888e-09 -1.529265203422575087e-08 -1.622494165973056573e-08 -6.408137404884866468e-09 -6.398665831930693756e-09
-3.485051999999999806e-08 -3.436235468028242873e-08 -1.392653927109061823e-08 -9.439602197070039656e-09 -1.547962521871717153e-08 -1.642200889194597491e-08 -6.605296345126273756e-09 -6.612871488510286548e-09
-3.485051999999999806e-08 -3.434422958872150493e-08 -1.406753029552599328e-08 -9.611058376444547688e-09 -1.563474052850255515e-08 -1.659079623920607870e-08 -6.771220085821674048e-09 -6.799683674775688644e-09
-3.485051999999999806e-08 -3.432385881254615093e-08 -1.418222535234740200e-08 -9.756348236523425376e-09 -1.576386373057012313e-08 -1.673553535160302149e-08 -6.910989822138306924e-09 -6.962764726097527133e-09
-3.485051999999999806e-08 -3.430134929079092982e-08 -1.427482521152935850e-08 -9.879463806987959874e-09 -1.587170413747524370e-08 -1.685974533541039100e-08 -7.028818484335575346e-09 -7.105242048758838646e-09
-3.485051999999999806e-08 -3.427677919380351615e-08 -1.434872248962292412e-08 -9.983752806019225446e-09 -1.596206146289991622e-08 -1.696636953232619668e-08 -7.128210723971188281e-09 -7.229796203628981578e-09
-3.485051999999999806e-08 -3.425020484082534502e-08 -1.440684057077287343e-08 -1.007203185472396911e-08 -1.603801452103956791e-08 -1.705788222380484698e-08 -7.212090268250912350e-09 -7.338732377424792162e-09
-3.485051999999999806e-08 -3.422166578141647069e-08 -1.445167138837569085e-08 -1.014667745617736038e-08 -1.610206701329076986e-08 -1.713637275744809066e-08 -7.282902117684089996e-09 -7.434038810781999570e-09
-3.485051999999999806e-08 -3.419118858163885569e-08 -1.448534648042295922e-08 -1.020969968044274246e-08 -1.615626128497626078e-08 -1.720361250763436449e-08 -7.342695151619134490e-09 -7.517434889456057848e-09
-3.485051999999999806e-08 -3.415878969371528931e-08 -1.450985682212625047e-08 -1.026280226175956319e-08 -1.620226787089950758e-08 -1.726110864642493258e-08 -7.393189321613271086e-09 -7.590410979897131276e-09
-3.485051999999999806e-08 -3.412447764141476448e-08 -1.452687695280214179e-08 -1.030743192284072611e-08 -1.624145647314851749e-08 -1.731014767033111915e-08 -7.435830617555810978e-09 -7.654261621895364199e-09
-3.485051999999999806e-08 -3.408825471231935376e-08 -1.453773133681594088e-08 -1.034481908226408422e-08 -1.627495257449540114e-08 -1.735183088764781729e-08 -7.471836252189676702e-09 -7.710113336969213495e-09
-4.214500499999999616e-08 -4.110767271810340337e-08 -1.704972465757058482e-08 -1.208800562285579168e-08 -1.907733465537944768e-08 -2.058687003516530327e-08 -8.627841025467451937e-09 -9.053013541437676714e-09
-4.214500499999999616e-08 -4.098867891212202335e-08 -1.660050044246522632e-08 -1.173237653163054589e-08 -1.858680076523422980e-08 -2.024280797004529824e-08 -8.291984573505632412e-09 -8.818788978641242013e-09
-4.214500499999999616e-08 -4.086647604501509249e-08 -1.622063863837914629e-08 -1.143316721145445060e-08 -1.818998827292081394e-08 -1.994486051836946237e-08 -8.016031824739698917e-09 -8.616504220994905496e-09
-4.214500499999999616e-08 -4.074123162683948471e-08 -1.589929142989329408e-08 -1.118165023835239434e-08 -1.786981754473992319e-08 -1.968693786788224566e-08 -7.789664825690790162e-09 -8.441945526842811178e-09
-4.214500499999999616e-08 -4.061303802086369863e-08 -1.562705438818951426e-08 -1.097030814359486069e-08 -1.761188249639117286e-08 -1.946357339059665823e-08 -7.604210447776493727e-09 -8.291395330253750277e-09
-4.214500499999999616e-08 -4.048192806387455769e-08 -1.539586491943154061e-08 -1.079271167641958231e-08 -1.740420830621869762e-08 -1.926991897599125526e-08 -7.452423973150482283e-09 -8.161590579690208699e-09
-4.214500499999999616e-08 -4.034788938033272830e-08 -1.519888625467991025e-08 -1.064339407966682320e-08 -1.723695288885563778e-08 -1.910171694478236921e-08 -7.328284375879550656e-09 -8.049679459003277485e-09
-4.214500499999999616e-08 -4.021087702057414479e-08 -1.503042997773471759e-08 -1.051772895500962986e-08 -1.710209760663037660e-08 -1.895525778963925788e-08 -7.226807956446535277e-09 -7.953178574946670418e-09
-4.214500499999999616e-08 -4.007082404304265297e-08 -1.488572964770818769e-08 -1.041181620597877726e-08 -1.699315378837088755e-08 -1.882733053248029057e-08 -7.143883149763649804e-09 -7.869931964358097816e-09
-4.214500499999999616e-08 -3.992765025747428534e-08 -1.476078010633297750e-08 -1.032237841025672980e-08 -1.690489848797288380e-08 -1.871517045823872360e-08 -7.076126890100652213e-09 -7.798072756009669587e-09
-4.214500499999999616e-08 -3.978126931253839593e-08 -1.465223029537540697e-08 -1.024666853485389460e-08 -1.683314475543958428e-08 -1.861640742671004603e-08 -7.020761501919660095e-09 -7.735987941182674101e-09
-4.214500499999999616e-08 -3.963159429864312783e-08 -1.455728437843867268e-08 -1.018238898081878146e-08 -1.677454669290981717e-08 -1.852901677306107209e-08 -6.975510326120237196e-09 -7.682286439339152393e-09
-4.214500499999999616e-08 -3.947854207431513568e-08 -1.447360767351671928e-08 -1.012762138082435679e-08 -1.672643690147480248e-08 -1.845127396333187645e-08 -6.938509977285725700e-09 -7.635770450579898410e-09
-4.214500499999999616e-08 -3.932203653188379554e-08 -1.439925523281775128e-08 -1.008076626687519604e-08 -1.668669271660427316e-08 -1.838171355838466261e-08 -6.908237063810754756e-09 -7.595409980924264992e-09
-4.214500499999999616e-08 -3.916201100754409605e-08 -1.433261889944090132e-08 -1.004049158909985108e-08 -1.665362709446320703e-08 -1.831909264987082487e-08 -6.883447306059639597e-09 -7.560320339950825840e-09
-4.214500499999999616e-08 -3.899841005103269071e-08 -1.427237049933335628e-08 -1.000568903589025722e-08 -1.662590036115146332e-08 -1.826235866206591586e-08 -6.863125161163580084e-09 -7.529742376502367229e-09
-4.214500499999999616e-08 -3.883119658803789489e-08 -1.421741177324437963e-08 -9.975437140139912342e-09 -1.660244924476470489e-08 -1.821062126164769162e-08 -6.846442279742100398e-09 -7.503025200450486709e-09
-4.214500499999999616e-08 -3.866081842766549192e-08 -1.416683524051499288e-08 -9.948970232673170029e-09 -1.658243000793751658e-08 -1.816312803073955327e-08 -6.832723334970142528e-09 -7.479611134001030696e-09
-4.214500499999999616e-08 -3.848843875399476322e-08 -1.411989086189273548e-08 -9.925652393144949832e-09 -1.656517304545072783e-08 -1.811924352510872820e-08 -6.821417975219135013e-09 -7.459022647346744330e-09
-4.214500499999999616e-08 -3.831510874757742628e-08 -1.407595958106905861e-08 -9.904955647267380667e-09 -1.655014674169242552e-08 -1.807843133022710691e-08 -6.812077842285184264e-09 -7.440851047306768507e-09
-3.525449999999999980e-08 -3.191965753616471916e-08 -1.134792829337875544e-08 -7.759480179964965328e-09 -1.346225612173625571e-08 -1.475107588266936534e-08 -5.004249408091707169e-09 -5.644432288847470831e-09
-3.525449999999999980e-08 -3.178748367282347962e-08 -1.098066161221745320e-08 -7.306550801735054772e-09 -1.314694951126505411e-08 -1.442597188423396623e-08 -4.415033039264047587e-09 -5.130339086825333094e-09
-3.525449999999999980e-08 -3.165492849754167871e-08 -1.066466865566216971e-08 -6.917593990023530894e-09 -1.288708887316057331e-08 -1.414203236342806268e-08 -3.916809035185099223e-09 -4.676178029225191490e-09
-3.525449999999999980e-08 -3.152246964855830786e-08 -1.039259345898723903e-08 -6.584135800474870201e-09 -1.267291658109472947e-08 -1.389416284965341298e-08 -3.496808196221601389e-09 -4.276095460805978515e-09
-3.525449999999999980e-08 -3.139049402953661838e-08 -1.015948451543710675e-08 -6.298594618516704860e-09 -1.249623518145328591e-08 -1.367773430479316403e-08 -3.143644725449475024e-09 -3.924513586332729695e-09
-3.525449999999999980e-08 -3.125931350947636758e-08 -9.961548924174715972e-09 -6.054258820945864750e-09 -1.235022173586640340e-08 -1.348859256681436918e-08 -2.847301938139949809e-09 -3.616202676097797721e-09
-3.513382048589410175e-08 -3.092618197558288586e-08 -9.730315765172326137e-09 -5.807456831984404496e-09 -1.222923882496854593e-08 -1.332304713099539364e-08 -2.599061907033986281e-09 -3.346323041927413935e-09
-3.460570311690738839e-08 -2.992792807289466143e-08 -9.336923632396910810e-09 -5.483157216095759144e-09 -1.212865557451304498e-08 -1.317784641605991139e-08 -2.391402612395212386e-09 -3.110443696858995662e-09
-3.407598466504324172e-08 -2.895551151894527108e-08 -8.998661037923277568e-09 -5.210015709220115800e-09 -1.204468507914868112e-08 -1.305014498714966411e-08 -2.217879426974928474e-09 -2.904543723761529812e-09
-3.354500879516791835e-08 -2.800619482316463918e-08 -8.703375996995328622e-09 -4.977507725526950248e-09 -1.197424134435225585e-08 -1.293746675130869340e-08 -2.073002399958705610e-09 -2.725001288471446904e-09
-3.301289952519781266e-08 -2.707732544784899644e-08 -8.441361219447449919e-09 -4.777199401292279683e-09 -1.191481616496997354e-08 -1.283766696565256280e-08 -1.952116746643273234e-09 -2.568574304028463549e-09
-3.247974088218269054e-08 -2.616639126294349458e-08 -8.204861226121487042e-09 -4.602326269793452069e-09 -1.186437491247384554e-08 -1.274889498285145749e-08 -1.851290968774305175e-09 -2.432375846339206890e-09
-3.194562726887454579e-08 -2.527104929269152107e-08 -7.987660741276244238e-09 -4.447451332351166088e-09 -1.182126933172995206e-08 -1.266955894046299581e-08 -1.767214962031353659e-09 -2.313846690911862159e-09
-3.141065576048214963e-08 -2.438913599901594084e-08 -7.784758985964689707e-09 -4.308189951265936000e-09 -1.178416532173182430e-08 -1.259829311193043971e-08 -1.697109055661240503e-09 -2.210726701763664932e-09
-3.087494622521963466e-08 -2.351866442102183500e-08 -7.592109334234660849e-09 -4.180989773851711993e-09 -1.175198354501428681e-08 -1.253392825460450690e-08 -1.638644021961253461e-09 -2.121026320127443108e-09
-3.033861154698626568e-08 -2.265781908055857260e-08 -7.406412466113231236e-09 -4.062955298526090241e-09 -1.172385073822201435e-08 -1.247546505495822917e-08 -1.589871538377638925e-09 -2.042999000684701821e-09
-2.980178584484926197e-08 -2.180494376405907947e-08 -7.224951968871273428e-09 -3.951708268178113754e-09 -1.169906016072917896e-08 -1.242205060442126374e-08 -1.549164280664022849e-09 -1.975115144316305738e-09
-2.926461081134717366e-08 -2.095853242341720432e-08 -7.045464075116025982e-09 -3.845276595376688551e-09 -1.167703941668908711e-08 -1.237295773611592226e-08 -1.515164678860739994e-09 -1.916037859304376170e-09
-2.872720555533695104e-08 -2.011721784838309835e-08 -6.866034311454519442e-09 -3.742005878999301127e-09 -1.165732436225150581e-08 -1.232756700059312214e-08 -1.486741331806223217e-09 -1.864600707526633614e-09
-2.818972738345659166e-08 -1.927976136314853921e-08 -6.685016997679910185e-09 -3.640488730393519221e-09 -1.163953805817086973e-08 -1.228535103078683179e-08 -1.462952106593996860e-09 -1.819787486472068862e-09
-2.702567752061646566e-08 -1.821306586390290864e-08 -7.728061281055966985e-09 -4.993407538548652707e-09 -1.389451269661652013e-08 -1.401713272809389579e-08 -4.517001475690050682e-09 -4.291216402215344864e-09
-2.659261132955458969e-08 -1.763228558617618445e-08 -8.618373512507159218e-09 -6.096180990296748976e-09 -1.591433373610210751e-08 -1.570828450224615648e-08 -6.998143284458769565e-09 -6.379798295207992277e-09
-2.613631411071843675e-08 -1.700514469422352700e-08 -9.239955093172558032e-09 -6.918726858402946079e-09 -1.752540424281949698e-08 -1.710547320796390826e-08 -9.016531460520777172e-09 -8.130285168932507956e-09
-2.571279947225007301e-08 -1.634340838189741433e-08 -9.645576900875383678e-09 -7.514266462064088488e-09 -1.883203455741778160e-08 -1.827572671287217597e-08 -1.067885467048699071e-08 -9.613220960836527501e-09
-2.530180292096716792e-08 -1.565616895314325800e-08 -9.873630654812795043e-09 -7.922029341224942143e-09 -1.990618395860829124e-08 -1.926725496132956607e-08 -1.206210436442038529e-08 -1.088119218308788542e-08
-2.488494393356096190e-08 -1.495072660480956710e-08 -9.952527205623800493e-09 -8.171351770716933298e-09 -2.079915406462769334e-08 -2.011562840025386861e-08 -1.322316876378105768e-08 -1.197413646935076699e-08
-2.446107190303492688e-08 -1.423315370158973872e-08 -9.903572052642048571e-09 -8.284414958907146040e-09 -2.154852319462952340e-08 -2.084766538672428885e-08 -1.420494702176241066e-08 -1.292287914600976311e-08
-2.403340088728700950e-08 -1.350866731073091008e-08 -9.742907120458034520e-09 -8.278125692420004835e-09 -2.218244995815823096e-08 -2.148396532588596168e-08 -1.504036836408929968e-08 -1.375157514506474009e-08
-2.360522384976051930e-08 -1.278187788537946425e-08 -9.482859078451906362e-09 -8.165440672933305876e-09 -2.272244615909031691e-08 -2.204060922090552733e-08 -1.575510604820492147e-08 -1.447940373713817757e-08
-2.317896512034942633e-08 -1.205695327705487673e-08 -9.132899840314328921e-09 -7.956321129802032055e-09 -2.318522162508489064e-08 -2.253033091782640578e-08 -1.636945365713215213e-08 -1.512177363210533330e-08
-2.275617032540535873e-08 -1.133772716934357749e-08 -8.700347778594610713e-09 -7.658436827556263229e-09 -2.358394465847816553e-08 -2.296334205138872961e-08 -1.689964965262144201e-08 -1.569119660764718665e-08
-2.233803167726507628e-08 -1.062776739922756509e-08 -8.190892293520339340e-09 -7.277697455626374391e-09 -2.392912393863080056e-08 -2.334792462627978364e-08 -1.735883000283501153e-08 -1.619793075539090888e-08
-2.192538937209378272e-08 -9.930415470414128805e-09 -7.608996202283825112e-09 -6.818663679417498957e-09 -2.422923882951696223e-08 -2.369086420057358680e-08 -1.775772492336102236e-08 -1.665046085573988803e-08
-2.151881826258680847e-08 -9.248806075272046080e-09 -6.958212504849656611e-09 -6.284873559186233536e-09 -2.449119815060224724e-08 -2.399777153932443020e-08 -1.810517625676993706e-08 -1.705586177163133097e-08
-2.128172249654124764e-08 -8.899553166476810090e-09 -6.572554978547786279e-09 -5.980281010269969938e-09 -2.472067971130878547e-08 -2.427332484606084038e-08 -1.840852703625507581e-08 -1.742007660784047221e-08
-2.134220692906478240e-08 -9.133748040541218667e-09 -6.765114797803790701e-09 -6.196773866058207657e-09 -2.492238538242795428e-08 -2.452145453756444144e-08 -1.867391855038456818e-08 -1.774813195327878121e-08
-2.139771419463619263e-08 -9.366249171983294371e-09 -6.942890404095531192e-09 -6.398340014063156970e-09 -2.510023534733466311e-08 -2.474548583442989438e-08 -1.890651954101124008e-08 -1.804430610777988772e-08
-2.145048157723367492e-08 -9.596668390528628148e-09 -7.107249444404452859e-09 -6.586205538380688621e-09 -2.525751786229350160e-08 -2.494824998632401754e-08 -1.911070496245027519e-08 -1.831226178979898323e-08
-2.150191838186923664e-08 -9.824629588308888640e-09 -7.261758137532116509e-09 -6.761463553346287028e-09 -2.539700606227883956e-08 -2.513217188072291302e-08 -1.929019680769533325e-08 -1.855515172722850616e-08
-2.155286945048604478e-08 -1.004977532212181737e-08 -7.410275506677770343e-09 -6.925092424419660904e-09 -2.552104999743599496e-08 -2.529933967844189101e-08 -1.944817609194751393e-08 -1.877570334316984668e-08
-2.346135668440820495e-08 -1.112272814590461549e-08 -8.190964597851663708e-09 -7.665791323818591557e-09 -2.720626249172595208e-08 -2.727729283029227786e-08 -2.049600002984964656e-08 -2.010372904468970201e-08
-2.341238925545885005e-08 -1.125440691741863209e-08 -8.277680063510274268e-09 -7.755865769246477333e-09 -2.659338237442753743e-08 -2.692200866394885726e-08 -1.981384335324072172e-08 -1.971045510728916217e-08
-2.340041447731231436e-08 -1.138299300083180902e-08 -8.362411957778322244e-09 -7.842447261958746463e-09 -2.605817630611186459e-08 -2.659434630998468805e-08 -1.921062873393795481e-08 -1.934741757725515886e-08
-2.341148627502726659e-08 -1.150846644767926721e-08 -8.445362963337674842e-09 -7.926652395685520701e-09 -2.559342059391470158e-08 -2.629315655019409499e-08 -1.867943560813995479e-08 -1.901319171966311828e-08
-2.343559628213440183e-08 -1.163081461231855948e-08 -8.526712149574380087e-09 -8.008744780084345113e-09 -2.519178847913001338e-08 -2.601711630563558447e-08 -1.821336331645678877e-08 -1.870624181426568244e-08
-2.346627262171676410e-08 -1.175003214713306858e-08 -8.606617850292362375e-09 -8.088929919163335926e-09 -2.484613648387099559e-08 -2.576478496791691028e-08 -1.780572316579683792e-08 -1.842496515892110240e-08
-2.350175484341256824e-08 -1.186612074149873873e-08 -8.685220121912830389e-09 -8.167389338983332799e-09 -2.454970093664076966e-08 -2.553465287651245819e-08 -1.745017124195689268e-08 -1.816772921195148996e-08
-2.354028764549048682e-08 -1.197908889527025684e-08 -8.762642835341088919e-09 -8.244285016249680994e-09 -2.429622035707857616e-08 -2.532518188928661830e-08 -1.714079281197661365e-08 -1.793290222628398931e-08
-2.358058399948263585e-08 -1.208895161212537363e-08 -8.838995463461871446e-09 -8.319762243780527115e-09 -2.398613140667734209e-08 -2.513483838807351589e-08 -1.680644831446697272e-08 -1.771887786260510061e-08
-2.362182817843848469e-08 -1.219573001914232963e-08 -8.914374622800298785e-09 -8.393951734565492288e-09 -2.272501647739346518e-08 -2.496211932492274218e-08 -1.583441295869351255e-08 -1.752409441882267907e-08
-2.366359648600797666e-08 -1.229945086847897047e-08 -8.988865414500600610e-09 -8.466971274422387395e-09 -2.160619197799028565e-08 -2.480557206273116061e-08 -1.499685145447274922e-08 -1.734704932449545226e-08
-2.370577261414931907e-08 -1.240014626734898308e-08 -9.062542602126187959e-09 -8.538927075064110529e-09 -2.059055730147944732e-08 -2.466380883580911885e-08 -1.426015285676241812e-08 -1.718630957391859354e-08
-2.375193338057811535e-08 -1.249785324401452855e-08 -9.135471651479306025e-09 -8.609914912011251456e-09 -1.964629431946071319e-08 -2.453551665785083183e-08 -1.359692095294810781e-08 -1.704051873860448342e-08
-2.380541905474965039e-08 -1.259261355872384451e-08 -9.207709660078101956e-09 -8.680021100268116447e-09 -1.874750452455148430e-08 -2.441946346521217058e-08 -1.298469894559411441e-08 -1.690840115053773978e-08
-2.386014413851099602e-08 -1.268447226459282137e-08 -9.279306169872915674e-09 -8.749323343618340419e-09 -1.787296197171735988e-08 -2.431450122370684696e-08 -1.240487225843422375e-08 -1.678876378931632692e-08
-2.391308249830427506e-08 -1.277347745800509212e-08 -9.350303895165374439e-09 -8.817891481885707526e-09 -1.700504504882563617e-08 -2.421956663700538912e-08 -1.184175297668858633e-08 -1.668049635480776864e-08
-2.396322208084981647e-08 -1.285967998269920274e-08 -9.420739388903618680e-09 -8.885788154500352647e-09 -1.612885813689083038e-08 -2.413368001882148914e-08 -1.128182944456589233e-08 -1.658256992215205616e-08
-2.401057141618177178e-08 -1.294313329302587313e-08 -9.490643644814409849e-09 -8.953069394404453816e-09 -1.549580782425118544e-08 -2.405594279340495063e-08 -1.089873238351324442e-08 -1.649403453523270741e-08
-2.405548900752081848e-08 -1.302389308828869618e-08 -9.560042642857901342e-09 -9.019785163326510846e-09 -1.585822737709433501e-08 -2.398553402208954148e-08 -1.121632076506980949e-08 -1.641401602520138324e-08
-2.409837961031802964e-08 -1.310201699063367602e-08 -9.628957843215949702e-09 -9.085979836513790026e-09 -1.618146715999849631e-08 -2.392170627003370288e-08 -1.150549893601383716e-08 -1.634171229470336828e-08
-2.535893756775767656e-08 -1.390908820607210524e-08 -1.022066687186003921e-08 -9.644372998062117642e-09 -1.761965791858200705e-08 -2.552300166833800292e-08 -1.283916382529579785e-08 -1.774119508982783327e-08
-2.550203811990173018e-08 -1.412627179842167903e-08 -1.038553770002955949e-08 -9.799350290049501721e-09 -1.824963193090691679e-08 -2.599178773992671998e-08 -1.357297290697295039e-08 -1.833162799004458901e-08
-2.561313743567616408e-08 -1.433589352402192313e-08 -1.055172406873288769e-08 -9.955115580422827852e-09 -1.880565524210327386e-08 -2.640216608135235008e-08 -1.423094856279564150e-08 -1.885160007557981074e-08
-2.570288701396223532e-08 -1.453801932780677023e-08 -1.071932910874846953e-08 -1.011194482813408396e-08 -1.929957244367823343e-08 -2.676291537667906438e-08 -1.482350002131073223e-08 -1.931118562064018083e-08
